{
    "data": [
		{
            "id": 1,
            "title": "Chapter 1",
            "rank": 1,
	    	"status": 1
        },
        {
            "id": 2,
            "title": "Chapter 2",
            "rank": 2,
	    	"status": 1
        },
		{
            "id": 3,
            "title": "Chapter 3",
            "rank": 3,
            "status": 1
        },
		{
            "id": 4,
            "title": "Chapter 4",
            "rank": 4,
	    	"status": 3
        }
    ]
}